%YAML 1.1
%TAG !u! tag:unity3d.com,2011:
--- !u!114 &11400000
MonoBehaviour:
  m_ObjectHideFlags: 0
  m_CorrespondingSourceObject: {fileID: 0}
  m_PrefabInstance: {fileID: 0}
  m_PrefabAsset: {fileID: 0}
  m_GameObject: {fileID: 0}
  m_Enabled: 1
  m_EditorHideFlags: 0
  m_Script: {fileID: 11500000, guid: 202b9ee36813cb2418ec54ac5a2040f1, type: 3}
  m_Name: Pistol
  m_EditorClassIdentifier: 
  _audioGroup: Player
  _volume: 1
  _spatialBlend: 0.5
  _priority: 256
  _audioClipBanks:
  - Clips:
    - {fileID: 8300000, guid: 7093f811ac949c84b9f7d1b042aaca8d, type: 3}
  - Clips:
    - {fileID: 8300000, guid: cce1b3ad48a836240a49dc3375dad5ec, type: 3}
    - {fileID: 8300000, guid: 63412012c24b2844682b042cdb0f72b2, type: 3}
    - {fileID: 8300000, guid: 1c42dff032b6e6149a3def3cf25de66e, type: 3}
    - {fileID: 8300000, guid: 12bd4562ea0e44f4cb6b3cc4b7808279, type: 3}
    - {fileID: 8300000, guid: f3e4d11ac31e30346b282b53592bd10e, type: 3}
    - {fileID: 8300000, guid: d396f37c9d1720e4f801fae34a8bbb53, type: 3}
    - {fileID: 8300000, guid: 13ecbd60eab49654798b5b68b204dccd, type: 3}
    - {fileID: 8300000, guid: a2bdc3be1f6405c4590a1ce56b045dec, type: 3}
    - {fileID: 8300000, guid: 865694c7df48e0f46a4f69d135e71474, type: 3}
    - {fileID: 8300000, guid: f7f90df105b37ad4eb83b6475076f60e, type: 3}
  - Clips:
    - {fileID: 8300000, guid: cce1b3ad48a836240a49dc3375dad5ec, type: 3}
    - {fileID: 8300000, guid: 63412012c24b2844682b042cdb0f72b2, type: 3}
    - {fileID: 8300000, guid: 1c42dff032b6e6149a3def3cf25de66e, type: 3}
    - {fileID: 8300000, guid: 12bd4562ea0e44f4cb6b3cc4b7808279, type: 3}
    - {fileID: 8300000, guid: f3e4d11ac31e30346b282b53592bd10e, type: 3}
    - {fileID: 8300000, guid: d396f37c9d1720e4f801fae34a8bbb53, type: 3}
  - Clips:
    - {fileID: 8300000, guid: e1e575b5365aba94fa943db4388223bd, type: 3}
    - {fileID: 8300000, guid: b7db48c26254f7b488ddcb00ebd684b4, type: 3}
    - {fileID: 8300000, guid: 0c03a62798909154da26dcb7dede1a17, type: 3}
    - {fileID: 8300000, guid: d02b1b6cfe8b36642837556911c60938, type: 3}
    - {fileID: 8300000, guid: 5d52aa5273dccb5459cb578b30961e6b, type: 3}
