%YAML 1.1
%TAG !u! tag:unity3d.com,2011:
--- !u!114 &11400000
MonoBehaviour:
  m_ObjectHideFlags: 0
  m_CorrespondingSourceObject: {fileID: 0}
  m_PrefabInstance: {fileID: 0}
  m_PrefabAsset: {fileID: 0}
  m_GameObject: {fileID: 0}
  m_Enabled: 1
  m_EditorHideFlags: 0
  m_Script: {fileID: 11500000, guid: 202b9ee36813cb2418ec54ac5a2040f1, type: 3}
  m_Name: Zombie Alerted
  m_EditorClassIdentifier: 
  _audioGroup: Zombie
  _volume: 0.1
  _spatialBlend: 1
  _priority: 128
  _audioClipBanks:
  - Clips:
    - {fileID: 8300000, guid: 182335ca0f0c21a4784e2341fdf67b66, type: 3}
    - {fileID: 8300000, guid: cb8e5ce153d8c1647b3e3f79b107a319, type: 3}
    - {fileID: 8300000, guid: 8ce5fb4b8359a7444bc7fea2afb071be, type: 3}
    - {fileID: 8300000, guid: c7682517af2a5434888dda17a7b40043, type: 3}
    - {fileID: 8300000, guid: 74ebbfbf29d2e6e48b59f205f8435cb7, type: 3}
    - {fileID: 8300000, guid: a60d428247049d54ab4febbea66893ac, type: 3}
    - {fileID: 8300000, guid: d323da1217f618649976724c71d26c71, type: 3}
    - {fileID: 8300000, guid: 50db1861406ff6f4692e206beff5e05d, type: 3}
    - {fileID: 8300000, guid: 0f0c250b63a4e104ab6c6ed05564ca5c, type: 3}
    - {fileID: 8300000, guid: 706008a29c9867743b2bba7406ee0f28, type: 3}
    - {fileID: 8300000, guid: abde8fb7027e3104b93819bc54abf172, type: 3}
    - {fileID: 8300000, guid: c993c7577d53102499c98432c7399255, type: 3}
    - {fileID: 8300000, guid: 168d6741e2e92984c824c445d213ecef, type: 3}
    - {fileID: 8300000, guid: 98d42a953941dda40a2deb3a97592811, type: 3}
    - {fileID: 8300000, guid: c6014d5b8b30cf8498ea8c23030865d9, type: 3}
    - {fileID: 8300000, guid: e547654336f03114cb3092422b147d3f, type: 3}
    - {fileID: 8300000, guid: 263c68bcb36a0b04fb8c92c71f9d8744, type: 3}
    - {fileID: 8300000, guid: b1442bbea4496424f9f9058eaf2f9170, type: 3}
    - {fileID: 8300000, guid: 1b14d1b2ed53caa4bacae936495e2ceb, type: 3}
    - {fileID: 8300000, guid: 90ed9817b4c35154a9192891cb61d51f, type: 3}
    - {fileID: 8300000, guid: 4fc74ecabc45fd24283ce2646ea82f31, type: 3}
