%YAML 1.1
%TAG !u! tag:unity3d.com,2011:
--- !u!114 &11400000
MonoBehaviour:
  m_ObjectHideFlags: 0
  m_CorrespondingSourceObject: {fileID: 0}
  m_PrefabInstance: {fileID: 0}
  m_PrefabAsset: {fileID: 0}
  m_GameObject: {fileID: 0}
  m_Enabled: 1
  m_EditorHideFlags: 0
  m_Script: {fileID: 11500000, guid: 542035a7dfb2d21408ee103f84cf7274, type: 3}
  m_Name: Assault Rifle
  m_EditorClassIdentifier: 
  _pickupText: Press 'E' to pick up
  _inventoryName: M4
  _inventoryImage: {fileID: 21300000, guid: 4a4d471ed2d0ebf42b032e7338bc92d5, type: 3}
  _inventoryAction: 2
  _inventoryActionText: 
  _collectableItem: {fileID: 1295290487174505325, guid: 2bbdfddda62b33a42bf23013fd569ebd,
    type: 3}
  _replacementItem: {fileID: 0}
  _description: You are in luck, because this is one of the most powerful weapons!
  _category: 5
  _audio: {fileID: 11400000, guid: 264d391d0b488c64f9b5413d940bf947, type: 2}
  _weaponType: 2
  _attackType: 2
  _ammo: {fileID: 11400000, guid: 5a23689a56efe5d44900db666a542ec6, type: 2}
  _reloadType: 2
  _ammoCapacity: 0
  _range: 200
  _soundRadius: 5
  _automatic: 1
  _scopeMode: 1
  _rayRadius: 0
  _headDamage: 150
  _bodyDamage: 45
  _damageAttenuation:
    serializedVersion: 2
    m_Curve:
    - serializedVersion: 3
      time: 0
      value: 1
      inSlope: -0.018986437
      outSlope: -0.018986437
      tangentMode: 0
      weightedMode: 0
      inWeight: 0
      outWeight: 0.06684256
    - serializedVersion: 3
      time: 1
      value: 0
      inSlope: -0.041225504
      outSlope: -0.041225504
      tangentMode: 0
      weightedMode: 0
      inWeight: 0.21547943
      outWeight: 0
    m_PreInfinity: 2
    m_PostInfinity: 2
    m_RotationOrder: 4
  _force: 0
  _forceAttenuation:
    serializedVersion: 2
    m_Curve:
    - serializedVersion: 3
      time: 0
      value: 1
      inSlope: 0
      outSlope: 0
      tangentMode: 34
      weightedMode: 0
      inWeight: 0
      outWeight: 0
    - serializedVersion: 3
      time: 1
      value: 1
      inSlope: 0
      outSlope: 0
      tangentMode: 34
      weightedMode: 0
      inWeight: 0
      outWeight: 0
    m_PreInfinity: 2
    m_PostInfinity: 2
    m_RotationOrder: 4
  _weaponAnim: 4
  _attackAnimCount: 1
  _scopeModeFOV: 50
  _crosshair: {fileID: 21300006, guid: 1bd85ab4b5ca0a948949a374fb1a0a9a, type: 3}
  _shakeType: 0
  _shakeDuration: 0.2
  _shakeMagnitude: 0.02
  _shakeDamping: 1
