%YAML 1.1
%TAG !u! tag:unity3d.com,2011:
--- !u!114 &11400000
MonoBehaviour:
  m_ObjectHideFlags: 0
  m_CorrespondingSourceObject: {fileID: 0}
  m_PrefabInstance: {fileID: 0}
  m_PrefabAsset: {fileID: 0}
  m_GameObject: {fileID: 0}
  m_Enabled: 1
  m_EditorHideFlags: 0
  m_Script: {fileID: 11500000, guid: 6df4a6e6b42a53a45a6ee6bd3e43c517, type: 3}
  m_Name: Jewellery bank card
  m_EditorClassIdentifier: 
  _pickupText: Press 'E' to pick up
  _inventoryName: Jewellery Bank access card
  _inventoryImage: {fileID: 21300000, guid: 7f57614407f10a9479dad5dbb9091938, type: 3}
  _inventoryAction: 0
  _inventoryActionText: 
  _collectableItem: {fileID: 4644917711640185292, guid: 628cbc12d3f44d9438f3a618de9a7317,
    type: 3}
  _replacementItem: {fileID: 0}
  _description: This is a keycard for the jewellery bank
  _category: 2
  _audio: {fileID: 11400000, guid: 46e097a36a62fb44e98fe788356d0962, type: 2}
