%YAML 1.1
%TAG !u! tag:unity3d.com,2011:
--- !u!114 &11400000
MonoBehaviour:
  m_ObjectHideFlags: 0
  m_CorrespondingSourceObject: {fileID: 0}
  m_PrefabInstance: {fileID: 0}
  m_PrefabAsset: {fileID: 0}
  m_GameObject: {fileID: 0}
  m_Enabled: 1
  m_EditorHideFlags: 0
  m_Script: {fileID: 11500000, guid: 8c564a99401cab24ea5299c8cdfb4350, type: 3}
  m_Name: Medicine max
  m_EditorClassIdentifier: 
  _pickupText: Press 'E' to pick up
  _inventoryName: First aid box
  _inventoryImage: {fileID: 21300000, guid: c4ea55d634b41504aafd2338f8cb8e3b, type: 3}
  _inventoryAction: 1
  _inventoryActionText: 
  _collectableItem: {fileID: 3197765756474512144, guid: 2dbf656ec74691d46934da711887ed18,
    type: 3}
  _replacementItem: {fileID: 0}
  _description: A full first aid box for restoring your health to 100%.
  _category: 2
  _audio: {fileID: 11400000, guid: f2e8dcd1c9e511f498212a0516bfe913, type: 2}
  _healingAmount: 100
  _recipient: {fileID: 11400000, guid: 6117ad005ea35fe40af5450af2db4c1e, type: 2}
