%YAML 1.1
%TAG !u! tag:unity3d.com,2011:
--- !u!114 &11400000
MonoBehaviour:
  m_ObjectHideFlags: 0
  m_CorrespondingSourceObject: {fileID: 0}
  m_PrefabInstance: {fileID: 0}
  m_PrefabAsset: {fileID: 0}
  m_GameObject: {fileID: 0}
  m_Enabled: 1
  m_EditorHideFlags: 0
  m_Script: {fileID: 11500000, guid: 644e661a9e0d86d459de6575a86e9ded, type: 3}
  m_Name: Vaccine
  m_EditorClassIdentifier: 
  _pickupText: Press 'E' to pick up
  _inventoryName: Vaccine
  _inventoryImage: {fileID: 21300000, guid: efb16f31a76471748ac8717e8416ec98, type: 3}
  _inventoryAction: 0
  _inventoryActionText: 
  _collectableItem: {fileID: 3048033270058552870, guid: da773be61646b4646b662af727299c56,
    type: 3}
  _replacementItem: {fileID: 0}
  _description: The last 4 examples of the vaccine against the zombie fever.
  _category: 2
  _audio: {fileID: 11400000, guid: 46e097a36a62fb44e98fe788356d0962, type: 2}
